FACULTAD DE FARMACIA                                CODIGO   NEM RANK  LENG  MAT  HIST CS  POND  PSU   MAX    MIN	      PSU  BEA
Química y Farmacia 									19090	 10	  40   20    20   -    10  500   500   760.80 620.50      60   2
Nutrición y Dietética 								19091	 10	  40   20    20   -    10  500   500   770.40 608.90      60   2
