FACULTAD DE HUMANIDADES                             CODIGO   NEM RANK  LENG  MAT  HIST CS  POND  PSU   MAX    MIN	      PSU  BEA
Pedagogía en Filosofía 								19010	 10	  40   20    10   20   -   500   500   718.90 505.70      30   2
Pedagogía en Historia y Ciencias Sociales 			19011	 10	  40   20    10   20   -   500   500   741.90 552.60      70   3
Pedagogía en Música 								19015	 10	  40   25    15   10   -   500   500   619.60 529.95      40   2
Sociología 											19012	 10	  40   20    15   15   -   500   475   736.35 546.05      75   2